…
This section presents the resolution of the minimum requirements of this
task.

### 1. Average delivery time per courier

DeuschePost presents the highest deliveryTime, followed by transaher and
fedex.

    shipments %>% 
      filter(!is.na(deliverDate)) %>% # Remove not delivered orders
      group_by(courier) %>%
      summarise(mean = mean(deliveryTime)) %>%
      arrange(desc(mean))

    ## # A tibble: 33 x 2
    ##    courier        mean
    ##    <chr>         <dbl>
    ##  1 deutschePost  12   
    ##  2 transaher     11   
    ##  3 fedex          9.44
    ##  4 dpd            9.13
    ##  5 zeleris        6.33
    ##  6 schenker       5.5 
    ##  7 spring         5.5 
    ##  8 publicCorreos  5.23
    ##  9 ups            5.17
    ## 10 dhl            4.86
    ## # ... with 23 more rows

### 2. Average delivery time per shipping method

“dhl express - gpt - priority (packet tracked)” presents the highest
deliveryTime.

    shipments %>% 
      filter(!is.na(deliverDate)) %>% # Remove not delivered orders
      group_by(courier) %>%
      summarise(mean = mean(deliveryTime)) %>%
      arrange(desc(mean))

    ## # A tibble: 33 x 2
    ##    courier        mean
    ##    <chr>         <dbl>
    ##  1 deutschePost  12   
    ##  2 transaher     11   
    ##  3 fedex          9.44
    ##  4 dpd            9.13
    ##  5 zeleris        6.33
    ##  6 schenker       5.5 
    ##  7 spring         5.5 
    ##  8 publicCorreos  5.23
    ##  9 ups            5.17
    ## 10 dhl            4.86
    ## # ... with 23 more rows
…
